module gitlab.com/VFay/cossacks-game-randomizer

go 1.21.6

require (
	github.com/bwmarrin/discordgo v0.27.1 // indirect
	github.com/gorilla/websocket v1.4.2 // indirect
	github.com/joho/godotenv v1.5.1 // indirect
	golang.org/x/crypto v0.0.0-20210421170649-83a5a9bb288b // indirect
	golang.org/x/sys v0.0.0-20201119102817-f84b799fce68 // indirect
)
